('C:\\Users\\Shree\\Documents\\NETRMM\\bottleneck_runner\\build\\rest\\rest.pkg',
 {'BINARY': True,
  'DATA': True,
  'EXECUTABLE': True,
  'EXTENSION': True,
  'PYMODULE': True,
  'PYSOURCE': True,
  'PYZ': False,
  'SPLASH': True},
 [('PYZ-00.pyz',
   'C:\\Users\\Shree\\Documents\\NETRMM\\bottleneck_runner\\build\\rest\\PYZ-00.pyz',
   'PYZ'),
  ('struct',
   'C:\\Users\\Shree\\Documents\\NETRMM\\bottleneck_runner\\build\\rest\\localpycs\\struct.pyc',
   'PYMODULE'),
  ('pyimod01_archive',
   'C:\\Users\\Shree\\Documents\\NETRMM\\bottleneck_runner\\build\\rest\\localpycs\\pyimod01_archive.pyc',
   'PYMODULE'),
  ('pyimod02_importers',
   'C:\\Users\\Shree\\Documents\\NETRMM\\bottleneck_runner\\build\\rest\\localpycs\\pyimod02_importers.pyc',
   'PYMODULE'),
  ('pyimod03_ctypes',
   'C:\\Users\\Shree\\Documents\\NETRMM\\bottleneck_runner\\build\\rest\\localpycs\\pyimod03_ctypes.pyc',
   'PYMODULE'),
  ('pyimod04_pywin32',
   'C:\\Users\\Shree\\Documents\\NETRMM\\bottleneck_runner\\build\\rest\\localpycs\\pyimod04_pywin32.pyc',
   'PYMODULE'),
  ('pyiboot01_bootstrap',
   'C:\\Users\\Shree\\AppData\\Local\\Packages\\PythonSoftwareFoundation.Python.3.9_qbz5n2kfra8p0\\LocalCache\\local-packages\\Python39\\site-packages\\PyInstaller\\loader\\pyiboot01_bootstrap.py',
   'PYSOURCE'),
  ('pyi_rth_inspect',
   'C:\\Users\\Shree\\AppData\\Local\\Packages\\PythonSoftwareFoundation.Python.3.9_qbz5n2kfra8p0\\LocalCache\\local-packages\\Python39\\site-packages\\PyInstaller\\hooks\\rthooks\\pyi_rth_inspect.py',
   'PYSOURCE'),
  ('rest',
   'C:\\Users\\Shree\\Documents\\NETRMM\\bottleneck_runner\\rest.py',
   'PYSOURCE'),
  ('python39.dll',
   'C:\\Program '
   'Files\\WindowsApps\\PythonSoftwareFoundation.Python.3.9_3.9.3568.0_x64__qbz5n2kfra8p0\\python39.dll',
   'BINARY'),
  ('VCRUNTIME140.dll',
   'C:\\Program '
   'Files\\WindowsApps\\PythonSoftwareFoundation.Python.3.9_3.9.3568.0_x64__qbz5n2kfra8p0\\VCRUNTIME140.dll',
   'BINARY'),
  ('_decimal.pyd',
   'C:\\Program '
   'Files\\WindowsApps\\PythonSoftwareFoundation.Python.3.9_3.9.3568.0_x64__qbz5n2kfra8p0\\DLLs\\_decimal.pyd',
   'EXTENSION'),
  ('_hashlib.pyd',
   'C:\\Program '
   'Files\\WindowsApps\\PythonSoftwareFoundation.Python.3.9_3.9.3568.0_x64__qbz5n2kfra8p0\\DLLs\\_hashlib.pyd',
   'EXTENSION'),
  ('_lzma.pyd',
   'C:\\Program '
   'Files\\WindowsApps\\PythonSoftwareFoundation.Python.3.9_3.9.3568.0_x64__qbz5n2kfra8p0\\DLLs\\_lzma.pyd',
   'EXTENSION'),
  ('_bz2.pyd',
   'C:\\Program '
   'Files\\WindowsApps\\PythonSoftwareFoundation.Python.3.9_3.9.3568.0_x64__qbz5n2kfra8p0\\DLLs\\_bz2.pyd',
   'EXTENSION'),
  ('select.pyd',
   'C:\\Program '
   'Files\\WindowsApps\\PythonSoftwareFoundation.Python.3.9_3.9.3568.0_x64__qbz5n2kfra8p0\\DLLs\\select.pyd',
   'EXTENSION'),
  ('_socket.pyd',
   'C:\\Program '
   'Files\\WindowsApps\\PythonSoftwareFoundation.Python.3.9_3.9.3568.0_x64__qbz5n2kfra8p0\\DLLs\\_socket.pyd',
   'EXTENSION'),
  ('_ssl.pyd',
   'C:\\Program '
   'Files\\WindowsApps\\PythonSoftwareFoundation.Python.3.9_3.9.3568.0_x64__qbz5n2kfra8p0\\DLLs\\_ssl.pyd',
   'EXTENSION'),
  ('unicodedata.pyd',
   'C:\\Program '
   'Files\\WindowsApps\\PythonSoftwareFoundation.Python.3.9_3.9.3568.0_x64__qbz5n2kfra8p0\\DLLs\\unicodedata.pyd',
   'EXTENSION'),
  ('libcrypto-1_1.dll',
   'C:\\Program '
   'Files\\WindowsApps\\PythonSoftwareFoundation.Python.3.9_3.9.3568.0_x64__qbz5n2kfra8p0\\DLLs\\libcrypto-1_1.dll',
   'BINARY'),
  ('libssl-1_1.dll',
   'C:\\Program '
   'Files\\WindowsApps\\PythonSoftwareFoundation.Python.3.9_3.9.3568.0_x64__qbz5n2kfra8p0\\DLLs\\libssl-1_1.dll',
   'BINARY'),
  ('base_library.zip',
   'C:\\Users\\Shree\\Documents\\NETRMM\\bottleneck_runner\\build\\rest\\base_library.zip',
   'DATA'),
  ('setuptools-58.1.0.dist-info\\entry_points.txt',
   'c:\\program '
   'files\\windowsapps\\pythonsoftwarefoundation.python.3.9_3.9.3568.0_x64__qbz5n2kfra8p0\\lib\\site-packages\\setuptools-58.1.0.dist-info\\entry_points.txt',
   'DATA'),
  ('setuptools-58.1.0.dist-info\\top_level.txt',
   'c:\\program '
   'files\\windowsapps\\pythonsoftwarefoundation.python.3.9_3.9.3568.0_x64__qbz5n2kfra8p0\\lib\\site-packages\\setuptools-58.1.0.dist-info\\top_level.txt',
   'DATA'),
  ('setuptools-58.1.0.dist-info\\RECORD',
   'c:\\program '
   'files\\windowsapps\\pythonsoftwarefoundation.python.3.9_3.9.3568.0_x64__qbz5n2kfra8p0\\lib\\site-packages\\setuptools-58.1.0.dist-info\\RECORD',
   'DATA'),
  ('setuptools-58.1.0.dist-info\\REQUESTED',
   'c:\\program '
   'files\\windowsapps\\pythonsoftwarefoundation.python.3.9_3.9.3568.0_x64__qbz5n2kfra8p0\\lib\\site-packages\\setuptools-58.1.0.dist-info\\REQUESTED',
   'DATA'),
  ('setuptools-58.1.0.dist-info\\METADATA',
   'c:\\program '
   'files\\windowsapps\\pythonsoftwarefoundation.python.3.9_3.9.3568.0_x64__qbz5n2kfra8p0\\lib\\site-packages\\setuptools-58.1.0.dist-info\\METADATA',
   'DATA'),
  ('setuptools-58.1.0.dist-info\\WHEEL',
   'c:\\program '
   'files\\windowsapps\\pythonsoftwarefoundation.python.3.9_3.9.3568.0_x64__qbz5n2kfra8p0\\lib\\site-packages\\setuptools-58.1.0.dist-info\\WHEEL',
   'DATA'),
  ('setuptools-58.1.0.dist-info\\LICENSE',
   'c:\\program '
   'files\\windowsapps\\pythonsoftwarefoundation.python.3.9_3.9.3568.0_x64__qbz5n2kfra8p0\\lib\\site-packages\\setuptools-58.1.0.dist-info\\LICENSE',
   'DATA'),
  ('setuptools-58.1.0.dist-info\\INSTALLER',
   'c:\\program '
   'files\\windowsapps\\pythonsoftwarefoundation.python.3.9_3.9.3568.0_x64__qbz5n2kfra8p0\\lib\\site-packages\\setuptools-58.1.0.dist-info\\INSTALLER',
   'DATA')],
 False,
 False,
 False,
 [],
 None,
 None,
 None)
